{
  "name": "sochara",
  "version": "1.0.0",
  "authors": [
    "RobinHossain <sochara-dev@gmail.com>"
  ],
  "license": "MIT",
  "ignore": [
    "**/.*",
    "node_modules",
    "bower_components",
    "assets/vendor",
    "test",
    "tests"
  ],
  "dependencies": {
    "angular": "1.5.11",
    "angular-animate": "1.5.11",
    "angular-aria": "1.5.11",
//    "angular-chart.js": "1.1.1",
//    "angular-chartist.js": "3.3.13",
//    "angular-cookies": "1.5.11",
//    "angular-datatables": "0.6.0",
//    "angular-native-dragdrop": "1.2.2",
//    "jsPlumb": "2.0.5",
//    "angular-gantt": "1.2.14",
//    "angular-google-maps": "2.3.2",
//    "angular-material": "1.1.3",
//    "angular-messages": "1.5.11",
//    "angular-nvd3": "1.0.7",
//    "angular-resource": "1.5.11",
    "angular-sanitize": "1.5.11",
//    "angular-timer": "1.3.4",
//    "angular-translate": "2.13.0",
//    "angular-translate-loader-partial": "2.13.0",
    "angular-ui-calendar": "1.0.1",
    "angular-ui-router": "0.3.2",
//    "angular-ui-sortable": "0.16.0",
//    "angular-ui-tree": "2.22.1",
    "angular-xeditable": "0.5.0",
//    "c3-angular": "1.3.1",
//    "css-element-queries": "0.3.2",
//    "d3": "3.5.17",
//    "datatables-responsive": "2.1.0",
//    "highlightjs": "8.9.1",
    "imagesloaded": "4.1.1",
    "jquery": "3.1.1",
    "jqueryui-touch-punch": "*",
    "mobile-detect": "1.3.5",
    "moment": "2.20.0",
    "moment-picker": "0.9.4",
    "moment-range": "2.2.0",
//    "nvd3": "1.8.5",
//    "ng-flow": "2.7.4",
    "perfect-scrollbar": "0.6.14",
//    "Sortable": "1.4.2",
    "textAngular": "1.5.16",
//    "wip-image-zoom": "^0.1.6-beta",
//    "angular-input-masks": "~2.5.0",
    "jquery-modal": "~0.8.0",
//    "Croppie": "croppie#~2.4.1",
    "base-64": "^0.1.0",
    "quoted-printable": "^1.0.1",
    "utf8": "^2.1.2",
    "ng-emoticons": "~2.1.0",
    "emoji-picker": "~1.1.3",
    "ng-file-upload": "^12.2.13",
    "angular-hammer": "https://github.com/randallb/angular-hammer.git",
    "spectrum": "^1.8.0",
    "skypecon": "https://github.com/demoive/skypecon.git",
//    "clear-icon": "*",
//    "ame-lightbox": "^0.0.11",
//    "angular-save-html-to-pdf": "*",
    "plyr": "^2.0.13",
    "mdPickers": "^0.7.5",
    "html2canvas": "^0.4.1",
//    "ui-cropper": "^1.0.6",
//    "components-font-awesome": "^4.7.0",
    "ng-img-crop-full-extended": "ngImgCropFullExtended#^0.6.2",
//    "rrule": "^2.2.0",
//    "DateJS": "^1.0.0-rc3",
    "SocharaPhotoEditor": "*",
    "emoji-cheat-sheet.com": "https://github.com/WebpageFX/emoji-cheat-sheet.com.git",
//    "tooltipster": "^4.2.5",
//    "angular-masonry-directive": "https://github.com/klederson/angular-masonry-directive.git",
//    "masonry": "masonry-layout#^4.2.0",
//    "angular-masonry": "^0.17.0",
    "fullcalendar": "https://github.com/tpruvot/fullcalendar.git#^1.4.11",
    "packery": "^2.1.1"
  },
  "devDependencies": {
    "angular-mocks": "1.5.11"
  },
  "resolutions": {
    "angular": "1.5.11",
    "angular-material": "1.1.3",
//    "d3": "3.5.14",
    "moment": "2.17.1",
    "jquery": "3.1.1",
    "angular-sanitize": "1.5.11"
  },
  "overrides": {
    "angular-material": {
      "main": [
        "angular-material.js"
      ]
    },
    "perfect-scrollbar": {
      "main": [
        "css/perfect-scrollbar.css",
        "js/perfect-scrollbar.js"
      ]
    },
    "Sortable": {
      "main": [
        "Sortable.js",
        "ng-sortable.js"
      ]
    },
    "font-awesome": {
      "main": []
    }
  }
}
