<?xml version="1.0" encoding="UTF-8"?>
<!DOCTYPE svg  PUBLIC '-//W3C//DTD SVG 1.0//EN'  'http://www.w3.org/TR/2001/REC-SVG-20010904/DTD/svg10.dtd' [
	<!ENTITY ns_extend "http://ns.adobe.com/Extensibility/1.0/">
	<!ENTITY ns_ai "http://ns.adobe.com/AdobeIllustrator/10.0/">
	<!ENTITY ns_graphs "http://ns.adobe.com/Graphs/1.0/">
	<!ENTITY ns_vars "http://ns.adobe.com/Variables/1.0/">
	<!ENTITY ns_imrep "http://ns.adobe.com/ImageReplacement/1.0/">
	<!ENTITY ns_sfw "http://ns.adobe.com/SaveForWeb/1.0/">
	<!ENTITY ns_custom "http://ns.adobe.com/GenericCustomNamespace/1.0/">
	<!ENTITY ns_adobe_xpath "http://ns.adobe.com/XPath/1.0/">
]>
<svg enable-background="new 0 0 212 212" version="1.0" viewBox="0 0 212 212" xml:space="preserve" xmlns="http://www.w3.org/2000/svg">
<switch>
	<foreignObject width="1" height="1" requiredExtensions="http://ns.adobe.com/AdobeIllustrator/10.0/">
	</foreignObject>
	<g>
			<g fill="#fff">
				<path d="M55.1,156.9h101.8V55.1H55.1V156.9z M66.2,66.2h79.5v79.5H66.2V66.2z"/>
				<polygon points="11.1 158.3 0 158.3 0 212 53.7 212 53.7 200.9 11.1 200.9"/>
				<polygon points="11.1 11.1 53.7 11.1 53.7 0 0 0 0 53.7 11.1 53.7"/>
				<polygon points="200.9 200.9 158.3 200.9 158.3 212 212 212 212 158.3 200.9 158.3"/>
				<polygon points="158.3 0 158.3 11.1 200.9 11.1 200.9 53.7 212 53.7 212 0"/>
			</g>
	</g>
</switch>
</svg>
