<?xml version="1.0" encoding="UTF-8"?>
<!DOCTYPE svg  PUBLIC '-//W3C//DTD SVG 1.1//EN'  'http://www.w3.org/Graphics/SVG/1.1/DTD/svg11.dtd' [
	<!ENTITY ns_extend "http://ns.adobe.com/Extensibility/1.0/">
	<!ENTITY ns_ai "http://ns.adobe.com/AdobeIllustrator/10.0/">
	<!ENTITY ns_graphs "http://ns.adobe.com/Graphs/1.0/">
	<!ENTITY ns_vars "http://ns.adobe.com/Variables/1.0/">
	<!ENTITY ns_imrep "http://ns.adobe.com/ImageReplacement/1.0/">
	<!ENTITY ns_sfw "http://ns.adobe.com/SaveForWeb/1.0/">
	<!ENTITY ns_custom "http://ns.adobe.com/GenericCustomNamespace/1.0/">
	<!ENTITY ns_adobe_xpath "http://ns.adobe.com/XPath/1.0/">
]>
<svg enable-background="new 0 0 150 150" version="1.1" viewBox="0 0 150 150" xml:space="preserve" xmlns="http://www.w3.org/2000/svg">
<switch>
	<foreignObject width="1" height="1" requiredExtensions="http://ns.adobe.com/AdobeIllustrator/10.0/">
	</foreignObject>
	<g clip-rule="evenodd" fill-rule="evenodd">
		<path d="m118.7 98.2c3.8-7.2 5.9-15.3 5.9-24 0-28.5-23.2-51.6-51.7-51.6-28.6 0-51.7 23.1-51.7 51.6s23.2 51.6 51.7 51.6c8.2 0 16-1.9 22.9-5.3l30.3 7.1-7.4-29.4z"/>
		<g fill="#fff">
			<path d="m56 81h6.1c0 2-0.2 3.4-0.4 4.1s-0.8 1.3-1.7 1.8-2 0.8-4 0.8v6.4c4 0 7.2-0.3 9.1-0.8 1.8-0.5 3.4-1.4 4.6-2.7 1.3-1.3 1.8-2.6 2.1-4s0.2-3.8 0.2-7.5v-10.1h-16v12z"/>
			<path d="m78 81h5.8c0 2-0.2 3.4-0.4 4.1-0.3 0.7-0.7 1.3-1.6 1.8s-2.8 0.8-3.8 0.8v6.4c4 0 7.1-0.3 8.9-0.8s3.2-1.4 4.5-2.7 2-2.6 2.3-4 0.4-3.8 0.4-7.5v-10.1h-16.1v12z"/>
			<rect x="56" y="56" width="38" height="6"/>
		</g>
	</g>
</switch>
</svg>
